{
	"appId": "fi.trafipoint.app",
	"appName": "Trafipoint",
	"bundledWebRuntime": false,
	"npmClient": "npm",
	"webDir": "www",
	"plugins": {
		"SplashScreen": {
			"launchShowDuration": 0
		}
	},
	"cordova": {}
}
